3C1D7FFF
37BDFFFC
0C100006
00000000
08100004
00000000
27BDFFE8
AFBF0014
0C1002F4
00000000
0C1003E0
00000000
1000FFFD
00000000
3C021001
244200FC
3C041001
3C051001
248400C8
24A5009C
24460028
24070001
2408000A
00001825
00434821
A1270000
00834821
A1200000
00A34821
24630001
A1200000
1468FFF8
00000000
2442000A
2484000A
24A5000A
1446FFF2
00000000
03E00008
00000000
3C051001
3C041001
3C031001
00001025
24A50088
24840090
24630128
24060004
00A23821
A0E00000
00823821
A0E00000
00623821
24420001
A0E00000
1446FFF8
00000000
03E00008
00000000
27BDFFD0
3C021001
00002825
AFB40020
AFB3001C
AFB20018
24040006
3C141001
3C121001
3C131001
AFB60028
AFB50024
AFB10014
AFB00010
AFBF002C
90510094
00008025
0C100472
00000000
26940088
26520090
26730128
24150001
24160002
02202825
24040013
0C100482
00000000
02901021
90420000
00000000
1440001A
00000000
02501021
24030014
A0430000
02701021
A0510000
24040005
0C10048C
00000000
26310010
26100001
24020004
323100FF
1602FFEA
00000000
8FBF002C
8FB60028
8FB50024
8FB40020
8FB3001C
8FB20018
8FB10014
8FB00010
27BD0030
03E00008
00000000
14550009
00000000
02501021
24030014
A0430000
02701021
A0510000
24040006
1000FFE4
00000000
14560009
00000000
02501021
24030014
A0430000
02701021
A0510000
24040007
1000FFDA
00000000
02501021
A0400000
02701021
A0400000
24040020
1000FFD3
00000000
27BDFFB8
00002825
24040005
AFBE0040
AFB7003C
AFB3002C
3C171001
3C131001
3C1E1001
AFB60038
AFB50034
AFB40030
AFB20028
AFB00020
AFBF0044
AFB10024
92F20096
93D00084
0C100472
00000000
266200F8
AFA20010
3C021001
3C141001
3C151001
3C161001
244200C4
269400FC
26B500C8
26D6009C
00009825
AFB70018
AFA20014
2E620002
0000B825
00008825
AFA2001C
02402025
02002825
0C100482
00000000
02972021
8FA20010
90840000
A0520000
00918821
24020001
323100FF
14820010
00000000
02B72021
8FA2001C
A0920000
02D72021
A0900000
24040001
14400006
00000000
24040002
00002825
0C100472
00000000
24040008
0C10048C
00000000
26100004
26F70001
2402000A
321000FF
16E2FFDF
00000000
8FA20014
2694000A
00531021
A0510000
8FA20018
26730001
90420096
26B5000A
24420002
02429021
8FA20010
325200FF
24420001
AFA20010
24020004
26D6000A
12620004
00000000
93D00084
1000FFC6
00000000
8FBF0044
8FBE0040
8FB7003C
8FB60038
8FB50034
8FB40030
8FB3002C
8FB20028
8FB10024
8FB00020
27BD0048
03E00008
00000000
27BDFFD0
00002825
24040005
AFB40024
AFB30020
3C141001
3C131001
AFB2001C
AFB10018
AFB00014
AFBF002C
AFB50028
92720096
92900084
24110004
0C100472
00000000
26150028
32B500FF
02002825
02402025
26100004
0C100482
00000000
321000FF
24040020
0C10048C
00000000
16B0FFF6
00000000
92620096
2631FFFF
24420002
02429021
323100FF
325200FF
12200004
00000000
92900084
1000FFE9
00000000
8FBF002C
8FB50028
8FB40024
8FB30020
8FB2001C
8FB10018
8FB00014
27BD0030
03E00008
00000000
3C021001
9042008C
00000000
10400003
00000000
08100090
00000000
27BDFFE8
AFBF0014
0C1000F9
00000000
3C031001
90620084
00000000
2C440025
14800006
00000000
A0600084
8FBF0014
27BD0018
03E00008
00000000
24420004
A0620084
1000FFF9
00000000
27BDFFE0
AFBF001C
AFB20018
AFB10014
AFB00010
3C111001
0C10044A
00000000
3C101001
00002825
24040001
00409025
0C100472
00000000
920500F3
92240124
0C100482
00000000
24040020
0C10048C
00000000
24020002
12420021
00000000
24020003
12420026
00000000
24020001
1642000B
00000000
920200F3
00000000
2C430002
14600003
00000000
2442FFFE
A20200F3
24040032
0C10043C
00000000
00002825
24040001
0C100472
00000000
92240124
920500F3
0C100482
00000000
8FBF001C
8FB20018
8FB10014
8FB00010
24040004
27BD0020
0810048C
00000000
920200F3
00000000
2C43004E
24420002
1460FFE7
00000000
1000FFE6
00000000
3C021001
904300F4
00000000
1460FFE1
00000000
24030001
A04300F4
92220124
3C031001
2442FFFF
A062012F
920300F3
3C021001
A0430085
1000FFD6
00000000
27BDFFE0
00002825
24040007
AFB10018
AFB00014
3C111001
3C101001
AFBF001C
0C100472
00000000
92250085
9204012F
0C100482
00000000
24040020
0C10048C
00000000
9202012F
00002825
2442FFFF
24040007
A202012F
0C100472
00000000
92250085
9204012F
0C100482
00000000
24040002
0C10048C
00000000
8FBF001C
8FB10018
8FB00014
2404000F
27BD0020
0810043C
00000000
27BDFFC8
AFB40020
3C141001
9282012F
AFBF0034
AFBE0030
AFB7002C
AFB60028
AFB50024
AFB3001C
AFB20018
AFB10014
AFB00010
1440000B
00000000
3C021001
90450085
00002025
0C100482
00000000
24040020
0C10048C
00000000
3C021001
A04000F4
3C111001
3C121001
3C151001
2631009C
265200C8
00009825
3C1E1001
26B500FC
00008025
02B3B821
3C161001
02501821
90620000
9284012F
00000000
14820015
00000000
02301021
90460000
93C50085
00000000
14A6000F
00000000
A0400000
92C200F0
02F03021
24420001
A0C00000
A0600000
A2C200F0
0C100482
00000000
24040020
0C10048C
00000000
3C021001
A04000F4
26100001
2402000A
1602FFE3
00000000
2673000A
24020028
2631000A
2652000A
1662FFDA
00000000
8FBF0034
8FBE0030
8FB7002C
8FB60028
8FB50024
8FB40020
8FB3001C
8FB20018
8FB10014
8FB00010
27BD0038
03E00008
00000000
27BDFFE0
24050010
2404001C
AFBF001C
AFB10018
AFB00014
0C100482
00000000
00002825
2404000F
0C100472
00000000
3C041001
24840000
0C1004AD
00000000
00002825
24040004
0C100472
00000000
3C041001
24840008
0C1004AD
00000000
00008025
3C111001
922200F1
00000000
0202102A
14400007
00000000
8FBF001C
8FB10018
8FB00014
27BD0020
03E00008
00000000
26050017
30A500FF
2404001C
0C100482
00000000
24040009
0C10048C
00000000
26100001
1000FFEB
00000000
27BDFFE0
00002825
2404000E
AFB10018
AFB00014
3C111001
3C101001
AFBF001C
0C100472
00000000
92250095
9204008D
0C100482
00000000
24040020
0C10048C
00000000
9202008D
00002825
24420001
2404000E
A202008D
0C100472
00000000
92250095
9204008D
0C100482
00000000
24040003
0C10048C
00000000
8FBF001C
8FB10018
8FB00014
2404003C
27BD0020
0810043C
00000000
27BDFFD8
AFB10014
3C111001
9222008D
2403001B
AFBF0024
AFB40020
AFB3001C
AFB20018
AFB00010
1443003D
00000000
3C021001
90450095
2404001B
0C100482
00000000
24040020
0C10048C
00000000
3C021001
A040008C
3C121001
3C131001
3C141001
00008025
26520090
26730128
26940088
02501021
90420000
9224008D
00000000
14820019
00000000
02701021
3C031001
90420000
90650095
00000000
14A20012
00000000
02901821
90620000
00000000
24420001
A0620000
3C031001
90620098
00000000
2442FFFF
A0620098
0C100482
00000000
24040020
0C10048C
00000000
3C021001
A040008C
26100001
24020004
1602FFDF
00000000
8FBF0024
8FB40020
8FB3001C
8FB20018
8FB10014
8FB00010
27BD0028
03E00008
00000000
3C031001
90640124
00000000
1482FFCA
00000000
3C021001
3C031001
90420095
906500F3
00000000
14A2FFC3
00000000
3C031001
906200F1
00000000
2442FFFF
A06200F1
1000FFB5
00000000
3C021001
9044008C
00000000
1480001D
00000000
3C041001
00401825
248400C4
24020003
2405FFFF
00823021
90C60000
00000000
10C0001B
00000000
3C041001
248400F8
00441021
90420000
3C041001
24420001
A082008D
3C041001
90820095
00000000
2C45004D
14A00013
00000000
A0800095
24020001
A062008C
03E00008
00000000
27BDFFE8
AFBF0014
0C100241
00000000
8FBF0014
27BD0018
08100267
00000000
2442FFFF
1445FFDF
00000000
1000FFE9
00000000
24420004
A0820095
1000FFEC
00000000
24020001
3C031001
A0620096
3C031001
A0600084
3C041001
2403000C
A0830094
24050019
3C041001
A0850124
3C041001
24050004
A08500F3
3C041001
A08000F0
3C041001
A0830098
3C031001
24040003
A06400F1
3C031001
A0600095
3C031001
A06000F4
3C031001
A060008C
3C031001
A06200F2
3C021001
27BDFFE8
A0400097
3C021001
AC400080
AFBF0014
0C10000E
00000000
8FBF0014
27BD0018
08100028
00000000
00001025
0085182A
10600003
00000000
03E00008
00000000
00852023
24420001
1000FFF8
00000000
27BDFFE0
27A20010
3C081001
00801825
AFBF001C
00402025
25080010
00603025
00002825
28C7000A
10E0001A
00000000
00053080
00C53021
00063040
00661823
00681821
90630000
24470001
A0E3FFFF
14A0000C
00000000
A0E00000
00801825
0062282B
14A0000F
00000000
0C1004AD
00000000
8FBF001C
27BD0020
03E00008
00000000
00E01025
00A01825
1000FFE3
00000000
24C6FFF6
24A50001
1000FFE1
00000000
80450000
80660000
2442FFFF
24630001
A0460001
A065FFFF
1000FFE8
00000000
27BDFFE8
24050001
2404001C
AFBF0014
0C100482
00000000
00002825
2404000F
0C100472
00000000
3C041001
24840038
0C1004AD
00000000
3C021001
8FBF0014
904400F0
27BD0018
08100327
00000000
27BDFFE8
24050004
00002025
AFBF0014
0C100472
00000000
0C1004C1
00000000
2405001C
2404000A
0C100482
00000000
3C041001
24840040
0C1004AD
00000000
2405001C
2404000E
0C100482
00000000
3C041001
2484004C
0C1004AD
00000000
3C021001
904200F0
3C031001
00022080
00822021
8C620080
00000000
00822021
3C021001
90450098
00000000
00051100
00451023
00822021
3C021001
904500F1
00000000
00051080
00451021
00021040
00822021
AC640080
0C100327
00000000
24040010
2405001C
0C100482
00000000
8FBF0014
3C041001
2484005C
27BD0018
081004AD
00000000
27BDFFE8
24050009
24040007
AFBF0014
0C100472
00000000
0C1004C1
00000000
2405001C
2404000A
0C100482
00000000
3C041001
24840074
0C1004AD
00000000
2405001C
2404000E
0C100482
00000000
3C041001
2484004C
0C1004AD
00000000
3C021001
904200F0
3C031001
00022080
00822021
8C620080
00000000
00822021
3C021001
90450098
00000000
00051100
00451023
00822021
3C021001
904500F1
00000000
00051080
00451021
00021040
00822021
AC640080
0C100327
00000000
24040010
2405001C
0C100482
00000000
8FBF0014
3C041001
2484005C
27BD0018
081004AD
00000000
27BDFFE0
AFB00014
3C101001
920200F2
AFBF001C
AFB10018
1040002E
00000000
0C10012C
00000000
0C10003B
00000000
0C100146
00000000
0C100358
00000000
0C1002C2
00000000
0C100211
00000000
3C021001
904200F4
00000000
10400009
00000000
0C100196
00000000
8FBF001C
8FB10018
8FB00014
27BD0020
081001BC
00000000
3C021001
904200F1
00000000
10400006
00000000
3C021001
904300F0
24020028
14620005
00000000
3C021001
24030001
A20000F2
A0430097
8FBF001C
8FB10018
8FB00014
27BD0020
03E00008
00000000
3C021001
90430097
00408825
10600009
00000000
3C021001
904200F1
00000000
14400015
00000000
0C10036C
00000000
A2200097
0C10044A
00000000
24030003
1443FFE9
00000000
0C1002F4
00000000
00002825
00002025
0C100472
00000000
0C1004C1
00000000
24020001
A20200F2
1000FFDD
00000000
3C021001
904300F0
24020028
1462FFEA
00000000
0C1003A6
00000000
1000FFE6
00000000
3C08FFFF
8D090008
00000000
01244820
8D0A0008
00000000
0149582B
1560FFFC
00000000
03E00008
00000000
3C081001
03E00008
AD00007C
3C08FFFF
81080004
24090008
240B0001
00005025
11490015
00000000
010B6024
15800010
000B5840
3C081001
8D08007C
3C09FFFF
8D290008
00000000
0128582B
11600002
00000000
00001025
252900C8
3C081001
AD09007C
01401025
03E00008
24420001
0810044F
254A0001
03E00008
00001025
ACC00000
0085102B
10400003
00000000
03E00008
ACE40000
8CC20000
00852023
24420001
1000FFF7
ACC20000
00052900
3084000F
00A42825
3C021001
03E00008
A0450132
3C031001
90620132
00000000
3042000F
A0820000
90620132
00000000
00021102
03E00008
A0A20000
2C820028
10400006
2CA20050
10400004
3C021001
A0440131
3C021001
A0450130
03E00008
00000000
3C071001
2403000A
90E20131
14830007
3C061001
2C430027
10600002
24420001
A0E20131
03E00008
A0C00130
3C031001
90630132
90C50130
00031A00
00642025
00021880
00621821
00031900
00651821
00031840
3408B800
01031821
A4640000
2CA3004F
10600003
24A50001
03E00008
A0C50130
24420001
A0C00130
03E00008
A0E20131
00804825
80840000
00000000
14800003
00000000
03E00008
00000000
27BDFFE8
AFBF0014
308400FF
0C10048C
25290001
81240000
00000000
1480FFFA
00000000
8FBF0014
00000000
03E00008
27BD0018
3C021001
90420132
3403B800
00021200
34420020
3404CAC0
A4620000
24630002
1464FFFD
00000000
3C021001
A0400131
3C021001
03E00008
A0400130
00000000
00000000
00000000
00000000
00000000
00000000
00000000
00000000
00000000
00000000
00000000
00000000
00000000
00000000
00000000
00000000
00000000
00000000
00000000
00000000
00000000
00000000
00000000
00000000
00000000
00000000
00000000
00000000
00000000
00000000
00000000
00000000
00000000
00000000
00000000
00000000
00000000
00000000
00000000
00000000
00000000
00000000
00000000
00000000
00000000
00000000
00000000
00000000
00000000
00000000
00000000
00000000
00000000
00000000
00000000
00000000
00000000
00000000
00000000
00000000
00000000
00000000
00000000
00000000
00000000
00000000
00000000
00000000
00000000
00000000
00000000
00000000
00000000
00000000
00000000
00000000
00000000
00000000
00000000
00000000
00000000
00000000
00000000
00000000
00000000
00000000
00000000
00000000
00000000
00000000
00000000
00000000
00000000
00000000
00000000
00000000
00000000
00000000
00000000
00000000
00000000
00000000
00000000
00000000
00000000
00000000
00000000
00000000
00000000
00000000
00000000
00000000
00000000
00000000
00000000
00000000
00000000
00000000
00000000
00000000
00000000
00000000
00000000
00000000
00000000
00000000
00000000
00000000
00000000
00000000
00000000
00000000
00000000
00000000
00000000
00000000
00000000
00000000
00000000
00000000
00000000
00000000
00000000
00000000
00000000
00000000
00000000
00000000
00000000
00000000
00000000
00000000
00000000
00000000
00000000
00000000
00000000
00000000
00000000
00000000
00000000
00000000
00000000
00000000
00000000
00000000
00000000
00000000
00000000
00000000
00000000
00000000
00000000
00000000
00000000
00000000
00000000
00000000
00000000
00000000
00000000
00000000
00000000
00000000
00000000
00000000
00000000
00000000
00000000
00000000
00000000
00000000
00000000
00000000
00000000
00000000
00000000
00000000
00000000
00000000
00000000
00000000
00000000
00000000
00000000
00000000
00000000
00000000
00000000
00000000
00000000
00000000
00000000
00000000
00000000
00000000
00000000
00000000
00000000
00000000
00000000
00000000
00000000
00000000
00000000
00000000
00000000
00000000
00000000
00000000
00000000
00000000
00000000
00000000
00000000
00000000
00000000
00000000
00000000
00000000
00000000
00000000
00000000
00000000
00000000
00000000
00000000
00000000
00000000
00000000
00000000
00000000
00000000
00000000
00000000
00000000
00000000
00000000
00000000
00000000
00000000
00000000
00000000
00000000
00000000
00000000
00000000
00000000
00000000
00000000
00000000
00000000
00000000
00000000
00000000
00000000
00000000
00000000
00000000
00000000
00000000
00000000
00000000
00000000
00000000
00000000
00000000
00000000
00000000
00000000
00000000
00000000
00000000
00000000
00000000
00000000
00000000
00000000
00000000
00000000
00000000
00000000
00000000
00000000
00000000
00000000
00000000
00000000
00000000
00000000
00000000
00000000
00000000
00000000
00000000
00000000
00000000
00000000
00000000
00000000
00000000
00000000
00000000
00000000
00000000
00000000
00000000
00000000
00000000
00000000
00000000
00000000
00000000
00000000
00000000
00000000
00000000
00000000
00000000
00000000
00000000
00000000
00000000
00000000
00000000
00000000
00000000
00000000
00000000
00000000
00000000
00000000
00000000
00000000
00000000
00000000
00000000
00000000
00000000
00000000
00000000
00000000
00000000
00000000
00000000
00000000
00000000
00000000
00000000
00000000
00000000
00000000
00000000
00000000
00000000
00000000
00000000
00000000
00000000
00000000
00000000
00000000
00000000
00000000
00000000
00000000
00000000
00000000
00000000
00000000
00000000
00000000
00000000
00000000
00000000
00000000
00000000
00000000
00000000
00000000
00000000
00000000
00000000
00000000
00000000
00000000
00000000
00000000
00000000
00000000
00000000
00000000
00000000
00000000
00000000
00000000
00000000
00000000
00000000
00000000
00000000
00000000
00000000
00000000
00000000
00000000
00000000
00000000
00000000
00000000
00000000
00000000
00000000
00000000
00000000
00000000
00000000
00000000
00000000
00000000
00000000
00000000
00000000
00000000
00000000
00000000
00000000
00000000
00000000
00000000
00000000
00000000
00000000
00000000
00000000
00000000
00000000
00000000
00000000
00000000
00000000
00000000
00000000
00000000
00000000
00000000
00000000
00000000
00000000
00000000
00000000
00000000
00000000
00000000
00000000
00000000
00000000
00000000
00000000
00000000
00000000
00000000
00000000
00000000
00000000
00000000
00000000
00000000
00000000
00000000
00000000
00000000
00000000
00000000
00000000
00000000
00000000
00000000
00000000
00000000
00000000
00000000
00000000
00000000
00000000
00000000
00000000
00000000
00000000
00000000
00000000
00000000
00000000
00000000
00000000
00000000
00000000
00000000
00000000
00000000
00000000
00000000
00000000
00000000
00000000
00000000
00000000
00000000
00000000
00000000
00000000
00000000
00000000
00000000
00000000
00000000
00000000
00000000
00000000
00000000
00000000
00000000
00000000
00000000
00000000
00000000
00000000
00000000
00000000
00000000
00000000
00000000
00000000
00000000
00000000
00000000
00000000
00000000
00000000
00000000
00000000
00000000
00000000
00000000
00000000
00000000
00000000
00000000
00000000
00000000
00000000
00000000
00000000
00000000
00000000
00000000
00000000
00000000
00000000
00000000
00000000
00000000
00000000
00000000
00000000
00000000
00000000
00000000
00000000
00000000
00000000
00000000
00000000
00000000
00000000
00000000
00000000
00000000
00000000
00000000
00000000
00000000
00000000
00000000
00000000
00000000
00000000
00000000
00000000
00000000
00000000
00000000
00000000
00000000
00000000
00000000
00000000
00000000
00000000
00000000
00000000
00000000
00000000
00000000
00000000
00000000
00000000
00000000
00000000
00000000
00000000
00000000
00000000
00000000
00000000
00000000
00000000
00000000
00000000
00000000
00000000
00000000
00000000
00000000
00000000
00000000
00000000
00000000
00000000
00000000
00000000
00000000
00000000
00000000
00000000
00000000
00000000
00000000
00000000
00000000
00000000
00000000
00000000
00000000
00000000
00000000
00000000
00000000
00000000
00000000
00000000
00000000
00000000
00000000
00000000
00000000
00000000
00000000
00000000
00000000
00000000
00000000
00000000
00000000
00000000
00000000
00000000
00000000
00000000
00000000
00000000
00000000
00000000
00000000
00000000
00000000
00000000
00000000
00000000
00000000
00000000
00000000
00000000
00000000
00000000
00000000
00000000
00000000
00000000
00000000
00000000
00000000
00000000
00000000
00000000
00000000
00000000
00000000
00000000
00000000
00000000
00000000
00000000
00000000
00000000
00000000
00000000
00000000
00000000
00000000
00000000
00000000
00000000
00000000
00000000
00000000
00000000
00000000
00000000
00000000
00000000
00000000
00000000
00000000
00000000
00000000
00000000
00000000
00000000
00000000
00000000
00000000
00000000
00000000
00000000
00000000
00000000
00000000
00000000
00000000
00000000
00000000
00000000
00000000
00000000
00000000
00000000
00000000
00000000
00000000
00000000
00000000
00000000
00000000
00000000
00000000
00000000
00000000
00000000
00000000
00000000
00000000
00000000
00000000
00000000
00000000
00000000
00000000
00000000
00000000
00000000
00000000
00000000
00000000
00000000
00000000
00000000
00000000
00000000
00000000
00000000
00000000
00000000
00000000
00000000
00000000
00000000
00000000
00000000
00000000
00000000
00000000
00000000
00000000
00000000
00000000
